{
  "message": "Address list retrieved successfully!",
  "current_page": 1,
  "data": [
    {
      "Id": 79,
      "StreetNo": "11",
      "StreetName": "Imam Haron Road",
      "Building": "Office F01A, Lansdowne Building, Brookside Office Park,",
      "Postal": "",
      "Suburb": "Claremont",
      "City": "Cape Town",
      "Province": "Western Cape",
      "Country": 77,
      "PostCode": "7708",
      "Type": 28,
      "Person": 692,
      "MoveDate": "0001-01-01",
      "Preferred": 1,
      "Dispatch": 0,
      "Latitude": null,
      "Longitude": null,
      "country_rel": null,
      "type_rel": null
    },
    {
      "Id": 78,
      "StreetNo": "2",
      "StreetName": "Ann Arbor Road",
      "Building": null,
      "Postal": null,
      "Suburb": "Bramley Park",
      "City": "Sandton",
      "Province": "Gauteng",
      "Country": 77,
      "PostCode": "2090",
      "Type": 58594,
      "Person": 724,
      "MoveDate": "0001-01-01",
      "Preferred": 1,
      "Dispatch": 0,
      "Latitude": null,
      "Longitude": null,
      "country_rel": null,
      "type_rel": null
    },
    {
      "Id": 77,
      "StreetNo": "245",
      "StreetName": "Power Street",
      "Building": null,
      "Postal": null,
      "Suburb": "Boksburg",
      "City": "Johannesburg",
      "Province": "Gauteng",
      "Country": 77,
      "PostCode": "1459",
      "Type": 58594,
      "Person": 428,
      "MoveDate": "0001-01-01",
      "Preferred": 1,
      "Dispatch": 0,
      "Latitude": null,
      "Longitude": null,
      "country_rel": null,
      "type_rel": null
    },
    {
      "Id": 76,
      "StreetNo": "79",
      "StreetName": "Boeing Road East",
      "Building": null,
      "Postal": null,
      "Suburb": "Bedfordview",
      "City": "",
      "Province": "Gauteng",
      "Country": 77,
      "PostCode": "2007",
      "Type": 58594,
      "Person": 326,
      "MoveDate": "0001-01-01",
      "Preferred": 1,
      "Dispatch": 0,
      "Latitude": null,
      "Longitude": null,
      "country_rel": null,
      "type_rel": null
    },
    {
      "Id": 75,
      "StreetNo": "CNR",
      "StreetName": "West and Elgin Street, Ext 159",
      "Building": null,
      "Postal": null,
      "Suburb": "Pomona",
      "City": "",
      "Province": "Gauteng",
      "Country": 77,
      "PostCode": "9585",
      "Type": 28,
      "Person": 312,
      "MoveDate": "0001-01-01",
      "Preferred": 1,
      "Dispatch": 0,
      "Latitude": null,
      "Longitude": null,
      "country_rel": null,
      "type_rel": null
    },
    {
      "Id": 73,
      "StreetNo": "30",
      "StreetName": "Melrose Boulevard",
      "Building": "1st Floor",
      "Postal": null,
      "Suburb": "Melrose Arch",
      "City": "Johannesburg",
      "Province": "Gauteng",
      "Country": 77,
      "PostCode": "2196",
      "Type": 58594,
      "Person": 319,
      "MoveDate": "0001-01-01",
      "Preferred": 1,
      "Dispatch": 0,
      "Latitude": null,
      "Longitude": null,
      "country_rel": null,
      "type_rel": null
    },
    {
      "Id": 72,
      "StreetNo": "16",
      "StreetName": "Peltier Drive",
      "Building": "Massmart House",
      "Postal": null,
      "Suburb": "Sunninghill Ext 6",
      "City": "",
      "Province": "Gauteng",
      "Country": 77,
      "PostCode": "2191",
      "Type": 58594,
      "Person": 263,
      "MoveDate": "0001-01-01",
      "Preferred": 1,
      "Dispatch": 0,
      "Latitude": null,
      "Longitude": null,
      "country_rel": null,
      "type_rel": null
    },
    {
      "Id": 71,
      "StreetNo": "10",
      "StreetName": "Queens Road",
      "Building": null,
      "Postal": null,
      "Suburb": "Parktown",
      "City": "",
      "Province": "Gauteng",
      "Country": 77,
      "PostCode": "0084",
      "Type": 58594,
      "Person": 259,
      "MoveDate": "0001-01-01",
      "Preferred": 1,
      "Dispatch": 0,
      "Latitude": null,
      "Longitude": null,
      "country_rel": null,
      "type_rel": null
    },
    {
      "Id": 70,
      "StreetNo": "20",
      "StreetName": "Vlakfontein Road, Fulcrum Industrial",
      "Building": null,
      "Postal": null,
      "Suburb": "Springs",
      "City": "",
      "Province": "Gauteng",
      "Country": 77,
      "PostCode": "9750",
      "Type": 28,
      "Person": 237,
      "MoveDate": "0001-01-01",
      "Preferred": 1,
      "Dispatch": 0,
      "Latitude": null,
      "Longitude": null,
      "country_rel": null,
      "type_rel": null
    },
    {
      "Id": 69,
      "StreetNo": "124",
      "StreetName": "Western Services Road",
      "Building": "Building 16",
      "Postal": "",
      "Suburb": "Woodmead",
      "City": "Johannesburg",
      "Province": "Gauteng",
      "Country": 77,
      "PostCode": "2191",
      "Type": 58594,
      "Person": 218,
      "MoveDate": "0001-01-01",
      "Preferred": 1,
      "Dispatch": 0,
      "Latitude": null,
      "Longitude": null,
      "country_rel": null,
      "type_rel": null
    }
  ],
  "first_page_url": "https:\/\/briland.co.za\/api\/addresses?page=1",
  "from": 1,
  "last_page": 7,
  "last_page_url": "https:\/\/briland.co.za\/api\/addresses?page=7",
  "links": [
    {
      "url": null,
      "label": "&laquo; Previous",
      "active": false
    },
    {
      "url": "https:\/\/briland.co.za\/api\/addresses?page=1",
      "label": "1",
      "active": true
    },
    {
      "url": "https:\/\/briland.co.za\/api\/addresses?page=2",
      "label": "2",
      "active": false
    },
    {
      "url": "https:\/\/briland.co.za\/api\/addresses?page=3",
      "label": "3",
      "active": false
    },
    {
      "url": "https:\/\/briland.co.za\/api\/addresses?page=4",
      "label": "4",
      "active": false
    },
    {
      "url": "https:\/\/briland.co.za\/api\/addresses?page=5",
      "label": "5",
      "active": false
    },
    {
      "url": "https:\/\/briland.co.za\/api\/addresses?page=6",
      "label": "6",
      "active": false
    },
    {
      "url": "https:\/\/briland.co.za\/api\/addresses?page=7",
      "label": "7",
      "active": false
    },
    {
      "url": "https:\/\/briland.co.za\/api\/addresses?page=2",
      "label": "Next &raquo;",
      "active": false
    }
  ],
  "next_page_url": "https:\/\/briland.co.za\/api\/addresses?page=2",
  "path": "https:\/\/briland.co.za\/api\/addresses",
  "per_page": 10,
  "prev_page_url": null,
  "to": 10,
  "total": 69
}
